{
    "steam://rungame/730/76561202255233023/+csgo_econ_action_preview S76561198975763539A17318219952D16881222788342078519":{
       "marketName":"★ Karambit | Doppler (Factory New)",
       "inspectLink":"steam://rungame/730/76561202255233023/+csgo_econ_action_preview S76561198975763539A17318219952D16881222788342078519",
       "state":"COMPLETED",
       "itemInfo":{
          "stickers":[
             
          ],
          "itemid":"17318219952",
          "defindex":507,
          "paintindex":420,
          "rarity":6,
          "quality":3,
          "paintseed":808,
          "inventory":3221225475,
          "origin":8,
          "s":"76561198975763539",
          "a":"17318219952",
          "d":"16881222788342078519",
          "m":"0",
          "floatvalue":0.06894432008266449,
          "high_rank":1,
          "low_rank":1,
          "imageurl":"http://media.steampowered.com/apps/730/icons/econ/default_generated/weapon_knife_karambit_am_doppler_phase3_light_large.387e1b902c99ffb114b205e7634a9e1976852d04.png",
          "min":0,
          "max":0.08,
          "weapon_type":"Karambit",
          "item_name":"Doppler",
          "rarity_name":"Covert",
          "quality_name":"★",
          "origin_name":"Found in Crate",
          "wear_name":"Factory New",
          "full_item_name":"★ Karambit | Doppler (Factory New)"
       },
       "imageLink":"https://s.swap.gg/gscGuvQSa8.jpg"
    },
    "steam://rungame/730/76561202255233023/+csgo_econ_action_preview S76561199004617553A28202938416D14186906607178932363":{
        "marketName":"Desert Eagle | Emerald Jörmungandr (Factory New)",
        "inspectLink":"steam://rungame/730/76561202255233023/+csgo_econ_action_preview S76561199004617553A28202938416D14186906607178932363",
        "state":"COMPLETED",
        "itemInfo":{
           "stickers":[
              {
                 "slot":0,
                 "stickerId":5328,
                 "codename":"antwerp2022_team_imp_glitter",
                 "material":"antwerp2022/imp_glitter",
                 "name":"Imperial Esports (Glitter) | Antwerp 2022"
              },
              {
                 "slot":1,
                 "stickerId":5328,
                 "codename":"antwerp2022_team_imp_glitter",
                 "material":"antwerp2022/imp_glitter",
                 "name":"Imperial Esports (Glitter) | Antwerp 2022"
              },
              {
                 "slot":2,
                 "stickerId":5328,
                 "codename":"antwerp2022_team_imp_glitter",
                 "material":"antwerp2022/imp_glitter",
                 "name":"Imperial Esports (Glitter) | Antwerp 2022"
              },
              {
                 "slot":3,
                 "stickerId":5328,
                 "codename":"antwerp2022_team_imp_glitter",
                 "material":"antwerp2022/imp_glitter",
                 "name":"Imperial Esports (Glitter) | Antwerp 2022"
              }
           ],
           "itemid":"28202938416",
           "defindex":1,
           "paintindex":757,
           "rarity":4,
           "quality":4,
           "paintseed":859,
           "inventory":3221225475,
           "origin":23,
           "s":"76561199004617553",
           "a":"28202938416",
           "d":"14186906607178932363",
           "m":"0",
           "floatvalue":0.06358696520328522,
           "high_rank":1,
           "low_rank":1,
           "imageurl":"http://media.steampowered.com/apps/730/icons/econ/default_generated/weapon_deagle_am_jorm_green_light_large.db1045fee0af23f28bb4affd164d07e3aadd42ec.png",
           "min":0,
           "max":0.5,
           "weapon_type":"Desert Eagle",
           "item_name":"Emerald Jörmungandr",
           "rarity_name":"Restricted",
           "quality_name":"Unique",
           "origin_name":"Quest Reward",
           "wear_name":"Factory New",
           "full_item_name":"Desert Eagle | Emerald Jörmungandr (Factory New)"
        },
        "imageLink":"https://s.swap.gg/VPhhWhrSeQ.jpg"
     }
 }